---
http_interactions:
- request:
    method: get
    uri: http://ec2-54-234-151-52.compute-1.amazonaws.com/api/site/1?format=json
    body:
      encoding: US-ASCII
      string: ''
    headers:
      Accept-Encoding:
      - gzip;q=1.0,deflate;q=0.6,identity;q=0.3
      Accept:
      - ! '*/*'
      User-Agent:
      - Ruby
  response:
    status:
      code: 200
      message: OK
    headers:
      Date:
      - Thu, 28 Feb 2013 00:46:38 GMT
      Server:
      - Apache/2.2.22 (Ubuntu)
      Access-Control-Allow-Origin:
      - ! '*'
      Access-Control-Allow-Methods:
      - POST,GET,OPTIONS,PUT,DELETE
      Transfer-Encoding:
      - chunked
      Content-Type:
      - application/vnd.api.v1+json; charset=utf-8
    body:
      encoding: UTF-8
      string: ! '{"domain": "example.com", "id": 1, "language_code": "en-us", "license":
        "<p>Except where otherwise noted, this content is licensed under a <a rel=\"license\"
        href=\"http://creativecommons.org/licenses/by/3.0/\">Creative Commons Attribution
        License</a>. See <a href=\"/Copyrights\">Copyrights.</p>", "name": "example.com",
        "resource_uri": "/api/site/1", "signup_tos": "I agree to release my contributions
        under the <a rel=\"license\" href=\"http://creativecommons.org/licenses/by/3.0/\"
        target=\"_blank\">Creative Commons-By license</a>, unless noted otherwise.
        See <a href=\"/Copyrights\" target=\"_blank\">Copyrights</a>.", "time_zone":
        "America/Chicago"}'
    http_version: 
  recorded_at: Thu, 28 Feb 2013 00:46:26 GMT
- request:
    method: get
    uri: http://ec2-54-234-151-52.compute-1.amazonaws.com/api/site?format=json&limit=1
    body:
      encoding: US-ASCII
      string: ''
    headers:
      User-Agent:
      - Faraday v0.8.6
      Accept-Encoding:
      - gzip;q=1.0,deflate;q=0.6,identity;q=0.3
      Accept:
      - ! '*/*'
  response:
    status:
      code: 200
      message: OK
    headers:
      Date:
      - Wed, 06 Mar 2013 06:42:04 GMT
      Server:
      - Apache/2.2.22 (Ubuntu)
      Access-Control-Allow-Origin:
      - ! '*'
      Access-Control-Allow-Methods:
      - POST,GET,OPTIONS,PUT,DELETE
      Transfer-Encoding:
      - chunked
      Content-Type:
      - application/vnd.api.v1+json; charset=utf-8
    body:
      encoding: US-ASCII
      string: ! '{"meta": {"limit": 1, "next": null, "offset": 0, "previous": null,
        "total_count": 1}, "objects": [{"domain": "example.com", "id": 1, "language_code":
        "en-us", "license": "<p>Except where otherwise noted, this content is licensed
        under a <a rel=\"license\" href=\"http://creativecommons.org/licenses/by/3.0/\">Creative
        Commons Attribution License</a>. See <a href=\"/Copyrights\">Copyrights.</p>",
        "name": "example.com", "resource_uri": "/api/site/1", "signup_tos": "I agree
        to release my contributions under the <a rel=\"license\" href=\"http://creativecommons.org/licenses/by/3.0/\"
        target=\"_blank\">Creative Commons-By license</a>, unless noted otherwise.
        See <a href=\"/Copyrights\" target=\"_blank\">Copyrights</a>.", "time_zone":
        "America/Chicago"}]}'
    http_version: 
  recorded_at: Wed, 06 Mar 2013 06:41:43 GMT
- request:
    method: get
    uri: http://ec2-54-234-151-52.compute-1.amazonaws.com/api/page?format=json&limit=1
    body:
      encoding: US-ASCII
      string: ''
    headers:
      User-Agent:
      - Faraday v0.8.6
      Accept-Encoding:
      - gzip;q=1.0,deflate;q=0.6,identity;q=0.3
      Accept:
      - ! '*/*'
  response:
    status:
      code: 200
      message: OK
    headers:
      Date:
      - Wed, 06 Mar 2013 06:42:05 GMT
      Server:
      - Apache/2.2.22 (Ubuntu)
      Access-Control-Allow-Origin:
      - ! '*'
      Access-Control-Allow-Methods:
      - POST,GET,OPTIONS,PUT,DELETE
      Transfer-Encoding:
      - chunked
      Content-Type:
      - application/vnd.api.v1+json; charset=utf-8
    body:
      encoding: ASCII-8BIT
      string: !binary |-
        eyJtZXRhIjogeyJsaW1pdCI6IDEsICJuZXh0IjogIi9hcGkvcGFnZT9vZmZz
        ZXQ9MSZsaW1pdD0xJmxpbWl0PTEmZm9ybWF0PWpzb24iLCAib2Zmc2V0Ijog
        MCwgInByZXZpb3VzIjogbnVsbCwgInRvdGFsX2NvdW50IjogNDB9LCAib2Jq
        ZWN0cyI6IFt7ImNvbnRlbnQiOiAiPHRhYmxlPlxuXHQ8dGJvZHk+XG5cdFx0
        PHRyPlxuXHRcdFx0PHRkIHN0eWxlPVwiYmFja2dyb3VuZC1jb2xvcjogcmdi
        KDIzMiwgMjM2LCAyMzkpO1wiPlxuXHRcdFx0XHQ8c3Ryb25nPkxvY2F0aW9u
        PC9zdHJvbmc+PC90ZD5cblx0XHQ8L3RyPlxuXHRcdDx0cj5cblx0XHRcdDx0
        ZD5cblx0XHRcdFx0UGxlYXNlIGZpbGwgaW4gYWRkcmVzczwvdGQ+XG5cdFx0
        PC90cj5cblx0XHQ8dHI+XG5cdFx0XHQ8dGQgc3R5bGU9XCJiYWNrZ3JvdW5k
        LWNvbG9yOiByZ2IoMjMyLCAyMzYsIDIzOSk7XCI+XG5cdFx0XHRcdDxzdHJv
        bmc+SG91cnM8L3N0cm9uZz48L3RkPlxuXHRcdDwvdHI+XG5cdFx0PHRyPlxu
        XHRcdFx0PHRkPlxuXHRcdFx0XHRQbGVhc2UgZmlsbCBpbiBob3VyczwvdGQ+
        XG5cdFx0PC90cj5cblx0XHQ8dHI+XG5cdFx0XHQ8dGQgc3R5bGU9XCJiYWNr
        Z3JvdW5kLWNvbG9yOiByZ2IoMjMyLCAyMzYsIDIzOSk7XCI+XG5cdFx0XHRc
        dDxzdHJvbmc+UGhvbmU8L3N0cm9uZz48L3RkPlxuXHRcdDwvdHI+XG5cdFx0
        PHRyPlxuXHRcdFx0PHRkPlxuXHRcdFx0XHQoNDE1KSA1NTUtNTU1NTwvdGQ+
        XG5cdFx0PC90cj5cblx0XHQ8dHI+XG5cdFx0XHQ8dGQgc3R5bGU9XCJiYWNr
        Z3JvdW5kLWNvbG9yOiByZ2IoMjMyLCAyMzYsIDIzOSk7XCI+XG5cdFx0XHRc
        dDxzdHJvbmc+V2Vic2l0ZTwvc3Ryb25nPjwvdGQ+XG5cdFx0PC90cj5cblx0
        XHQ8dHI+XG5cdFx0XHQ8dGQ+XG5cdFx0XHRcdEFkZCBsaW5rIGhlcmU8L3Rk
        PlxuXHRcdDwvdHI+XG5cdFx0PHRyPlxuXHRcdFx0PHRkIHN0eWxlPVwiYmFj
        a2dyb3VuZC1jb2xvcjogcmdiKDIzMiwgMjM2LCAyMzkpO1wiPlxuXHRcdFx0
        XHQ8c3Ryb25nPkUtbWFpbDwvc3Ryb25nPjwvdGQ+XG5cdFx0PC90cj5cblx0
        XHQ8dHI+XG5cdFx0XHQ8dGQ+XG5cdFx0XHRcdEVtYWlsIGFkZHJlc3M8L3Rk
        PlxuXHRcdDwvdHI+XG5cdFx0PHRyPlxuXHRcdFx0PHRkIHN0eWxlPVwiYmFj
        a2dyb3VuZC1jb2xvcjogcmdiKDIzMiwgMjM2LCAyMzkpO1wiPlxuXHRcdFx0
        XHQ8c3Ryb25nPk93bmVyKHMpPC9zdHJvbmc+PC90ZD5cblx0XHQ8L3RyPlxu
        XHRcdDx0cj5cblx0XHRcdDx0ZD5cblx0XHRcdFx0TmFtZXMgb2Ygb3duZXJz
        L3Byb3ByaWV0b3JzIGhlcmU8L3RkPlxuXHRcdDwvdHI+XG5cdFx0PHRyPlxu
        XHRcdFx0PHRkIHN0eWxlPVwiYmFja2dyb3VuZC1jb2xvcjogcmdiKDIzMiwg
        MjM2LCAyMzkpO1wiPlxuXHRcdFx0XHQ8c3Ryb25nPkVzdGFibGlzaGVkPC9z
        dHJvbmc+PC90ZD5cblx0XHQ8L3RyPlxuXHRcdDx0cj5cblx0XHRcdDx0ZD5c
        blx0XHRcdFx0RGF0ZSwgaS5lLiBZWVlZLU1NLUREPC90ZD5cblx0XHQ8L3Ry
        PlxuXHRcdDx0cj5cblx0XHRcdDx0ZCBzdHlsZT1cImJhY2tncm91bmQtY29s
        b3I6IHJnYigyMzIsIDIzNiwgMjM5KTtcIj5cblx0XHRcdFx0PHN0cm9uZz5Q
        YXltZW50IE1ldGhvZDwvc3Ryb25nPjwvdGQ+XG5cdFx0PC90cj5cblx0XHQ8
        dHI+XG5cdFx0XHQ8dGQ+XG5cdFx0XHRcdFR5cGUgb2YgcGF5bWVudDwvdGQ+
        XG5cdFx0PC90cj5cblx0XHQ8dHI+XG5cdFx0XHQ8dGQgc3R5bGU9XCJiYWNr
        Z3JvdW5kLWNvbG9yOiByZ2IoMjMyLCAyMzYsIDIzOSk7XCI+XG5cdFx0XHRc
        dDxzdHJvbmc+V2hlZWxjaGFpciBhY2Nlc3NpYmlsaXR5PC9zdHJvbmc+PC90
        ZD5cblx0XHQ8L3RyPlxuXHRcdDx0cj5cblx0XHRcdDx0ZD5cblx0XHRcdFx0
        c3RhaXJzLCBiYXRocm9vbXMsIGhhbmRyYWlscywgYWlzbGUgd2lkdGg/PC90
        ZD5cblx0XHQ8L3RyPlxuXHQ8L3Rib2R5PlxuPC90YWJsZT5cbjxwPlxuXHRU
        aGVuLCBwdXTCoDxlbT53aGF0ZXZlcjwvZW0+wqB5b3Ugd2FudCBkb3duIGhl
        cmUhIE5vdGUgdGhhdMKgPGEgaHJlZj1cImh0dHA6Ly9sb2NhbC5nb29nbGUu
        Y29tXCI+aHR0cDovL2xvY2FsLmdvb2dsZS5jb208L2E+wqBpcyBzb21ldGlt
        ZXMgYSBnb29kIGFuZCBlYXN5IHBsYWNlIHRvIGZpbmQgdGltZXMvcGhvbmUu
        IEJldHRlciB5ZXQsIGxvb2sgdGhlbSB1cCBpbiB0aGUgcGhvbmUgYm9vaywg
        YW5kIGFzayB0aGVtLiBSZW1vdmUgdGhlIGZpZWxkcyB5b3UgZG9uJ3QgZmls
        bCBvdXQg4oCUIG9yIGV2ZW4gYmV0dGVyLCBsb29rIHVwIG9yIGNhbGwgdGhl
        bSBmb3IgdGhlIG1pc3NpbmcgaW5mb3JtYXRpb24hPC9wPlxuPGgzPlxuXHRS
        ZWxhdGVkIExpbmtzPC9oMz5cbjx1bD5cblx0PGxpPlxuXHRcdDxhIGhyZWY9
        XCJTaG9wcGluZ1wiPlNob3BwaW5nPC9hPjwvbGk+XG48L3VsPlxuPHA+XG5c
        dMKgPC9wPlxuIiwgImlkIjogMSwgIm1hcCI6IG51bGwsICJuYW1lIjogIlRl
        bXBsYXRlcy9CdXNpbmVzcyIsICJwYWdlX3RhZ3MiOiBudWxsLCAicmVzb3Vy
        Y2VfdXJpIjogIi9hcGkvcGFnZS9UZW1wbGF0ZXMvQnVzaW5lc3MiLCAic2x1
        ZyI6ICJ0ZW1wbGF0ZXMvYnVzaW5lc3MifV19
    http_version: 
  recorded_at: Wed, 06 Mar 2013 06:41:44 GMT
- request:
    method: get
    uri: http://ec2-54-234-151-52.compute-1.amazonaws.com/api/user?format=json&limit=1
    body:
      encoding: US-ASCII
      string: ''
    headers:
      User-Agent:
      - Faraday v0.8.6
      Accept-Encoding:
      - gzip;q=1.0,deflate;q=0.6,identity;q=0.3
      Accept:
      - ! '*/*'
  response:
    status:
      code: 200
      message: OK
    headers:
      Date:
      - Wed, 06 Mar 2013 06:42:06 GMT
      Server:
      - Apache/2.2.22 (Ubuntu)
      Access-Control-Allow-Origin:
      - ! '*'
      Access-Control-Allow-Methods:
      - POST,GET,OPTIONS,PUT,DELETE
      Transfer-Encoding:
      - chunked
      Content-Type:
      - application/vnd.api.v1+json; charset=utf-8
    body:
      encoding: US-ASCII
      string: ! '{"meta": {"limit": 1, "next": "/api/user?offset=1&limit=1&limit=1&format=json",
        "offset": 0, "previous": null, "total_count": 10}, "objects": [{"date_joined":
        "2013-02-17T01:54:39.818130", "first_name": "", "last_name": "", "resource_uri":
        "", "username": "AnonymousUser"}]}'
    http_version: 
  recorded_at: Wed, 06 Mar 2013 06:41:44 GMT
- request:
    method: get
    uri: http://ec2-54-234-151-52.compute-1.amazonaws.com/api/file?format=json&limit=1
    body:
      encoding: US-ASCII
      string: ''
    headers:
      User-Agent:
      - Faraday v0.8.6
      Accept-Encoding:
      - gzip;q=1.0,deflate;q=0.6,identity;q=0.3
      Accept:
      - ! '*/*'
  response:
    status:
      code: 200
      message: OK
    headers:
      Date:
      - Wed, 06 Mar 2013 06:42:06 GMT
      Server:
      - Apache/2.2.22 (Ubuntu)
      Access-Control-Allow-Origin:
      - ! '*'
      Access-Control-Allow-Methods:
      - POST,GET,OPTIONS,PUT,DELETE
      Transfer-Encoding:
      - chunked
      Content-Type:
      - application/vnd.api.v1+json; charset=utf-8
    body:
      encoding: US-ASCII
      string: ! '{"meta": {"limit": 1, "next": null, "offset": 0, "previous": null,
        "total_count": 0}, "objects": []}'
    http_version: 
  recorded_at: Wed, 06 Mar 2013 06:41:44 GMT
- request:
    method: get
    uri: http://ec2-54-234-151-52.compute-1.amazonaws.com/api/map?format=json&limit=1
    body:
      encoding: US-ASCII
      string: ''
    headers:
      User-Agent:
      - Faraday v0.8.6
      Accept-Encoding:
      - gzip;q=1.0,deflate;q=0.6,identity;q=0.3
      Accept:
      - ! '*/*'
  response:
    status:
      code: 200
      message: OK
    headers:
      Date:
      - Wed, 06 Mar 2013 06:42:06 GMT
      Server:
      - Apache/2.2.22 (Ubuntu)
      Access-Control-Allow-Origin:
      - ! '*'
      Access-Control-Allow-Methods:
      - POST,GET,OPTIONS,PUT,DELETE
      Transfer-Encoding:
      - chunked
      Content-Type:
      - application/vnd.api.v1+json; charset=utf-8
    body:
      encoding: US-ASCII
      string: ! '{"meta": {"limit": 1, "next": null, "offset": 0, "previous": null,
        "total_count": 0}, "objects": []}'
    http_version: 
  recorded_at: Wed, 06 Mar 2013 06:41:45 GMT
- request:
    method: get
    uri: http://ec2-54-234-151-52.compute-1.amazonaws.com/api/tag?format=json&limit=1
    body:
      encoding: US-ASCII
      string: ''
    headers:
      User-Agent:
      - Faraday v0.8.6
      Accept-Encoding:
      - gzip;q=1.0,deflate;q=0.6,identity;q=0.3
      Accept:
      - ! '*/*'
  response:
    status:
      code: 200
      message: OK
    headers:
      Date:
      - Wed, 06 Mar 2013 06:42:07 GMT
      Server:
      - Apache/2.2.22 (Ubuntu)
      Access-Control-Allow-Origin:
      - ! '*'
      Access-Control-Allow-Methods:
      - POST,GET,OPTIONS,PUT,DELETE
      Transfer-Encoding:
      - chunked
      Content-Type:
      - application/vnd.api.v1+json; charset=utf-8
    body:
      encoding: US-ASCII
      string: ! '{"meta": {"limit": 1, "next": "/api/tag?offset=1&limit=1&limit=1&format=json",
        "offset": 0, "previous": null, "total_count": 3}, "objects": [{"id": 3, "name":
        "h_test", "resource_uri": "/api/tag/h_test", "slug": "h_test"}]}'
    http_version: 
  recorded_at: Wed, 06 Mar 2013 06:41:45 GMT
- request:
    method: get
    uri: http://ec2-54-234-151-52.compute-1.amazonaws.com/api/page_tags?format=json&limit=1
    body:
      encoding: US-ASCII
      string: ''
    headers:
      User-Agent:
      - Faraday v0.8.6
      Accept-Encoding:
      - gzip;q=1.0,deflate;q=0.6,identity;q=0.3
      Accept:
      - ! '*/*'
  response:
    status:
      code: 200
      message: OK
    headers:
      Date:
      - Wed, 06 Mar 2013 06:42:07 GMT
      Server:
      - Apache/2.2.22 (Ubuntu)
      Access-Control-Allow-Origin:
      - ! '*'
      Access-Control-Allow-Methods:
      - POST,GET,OPTIONS,PUT,DELETE
      Transfer-Encoding:
      - chunked
      Content-Type:
      - application/vnd.api.v1+json; charset=utf-8
    body:
      encoding: US-ASCII
      string: ! '{"meta": {"limit": 1, "next": "/api/page_tags?offset=1&limit=1&limit=1&format=json",
        "offset": 0, "previous": null, "total_count": 2}, "objects": [{"id": 3, "page":
        "/api/page/HTestPage62148626-5794-40de-90aa-b223374fb095", "resource_uri":
        "/api/page_tags/HTestPage62148626-5794-40de-90aa-b223374fb095", "tags": ["/api/tag/h_test"]}]}'
    http_version: 
  recorded_at: Wed, 06 Mar 2013 06:41:45 GMT
recorded_with: VCR 2.4.0
